{
    "tutorial_name": "Box plots", 
    "banner_image": "https://plot.ly/~cimar/203/", 
    "tags": {
        "meta_description": "A tutorial on how to make a box plot online. Plotly is the easiest and fastest way to make and share graphs online.", 
        "title": "How to make a box plot"
    }
}
