{
    "tutorial_name": "Error bars", 
    "banner_image": "https://plot.ly/~cimar/208/", 
    "tags": {
        "meta_description": "A tutorial on how to make a graph with error bars online. Plotly is the easiest and fastest way to make and share graphs online.", 
        "title": "How to make a graph with error bars"
    }
}
